…
Match and join `gapminder` dataset which has 142 country into `gapminder_tidyschool` which has 133 country which should only match 1064, which looks correct.

### semi\_join()

> semi\_join(x, y): Return all rows from x where there are matching values in y, keeping just columns from x. A semi join differs from an inner join because an inner join will return one row of x for each matching row of y, where a semi join will never duplicate rows of x. This is a filtering join.

``` r
semi_join(gapminder, gapminder_tidyschool)
```

    ## # A tibble: 1,064 x 6
    ##    country     continent  year lifeExp      pop gdpPercap
    ##    <fct>       <fct>     <int>   <dbl>    <int>     <dbl>
    ##  1 Afghanistan Asia       1972    36.1 13079460      740.
    ##  2 Afghanistan Asia       1977    38.4 14880372      786.
    ##  3 Afghanistan Asia       1982    39.9 12881816      978.
    ##  4 Afghanistan Asia       1987    40.8 13867957      852.
    ##  5 Afghanistan Asia       1992    41.7 16317921      649.
    ##  6 Afghanistan Asia       1997    41.8 22227415      635.
    ##  7 Afghanistan Asia       2002    42.1 25268405      727.
    ##  8 Afghanistan Asia       2007    43.8 31889923      975.
    ##  9 Albania     Europe     1972    67.7  2263554     3313.
    ## 10 Albania     Europe     1977    68.9  2509048     3533.
    ## # ... with 1,054 more rows

Notice there is no meanSchool column, this returns all matches of x and y whist retaining the same column of original x. Like filter().

### left\_join()

> left\_join(x, y): Return all rows from x, and all columns from x and y. If there are multiple matches between x and y, all combination of the matches are returned. This is a mutating join.

``` r
left_join(gapminder, gapminder_tidyschool)
```

    ## # A tibble: 1,704 x 7
    ##    country     continent  year lifeExp      pop gdpPercap meanSchool
    ##    <chr>       <fct>     <int>   <dbl>    <int>     <dbl>      <dbl>
    ##  1 Afghanistan Asia       1952    28.8  8425333      779.       NA  
    ##  2 Afghanistan Asia       1957    30.3  9240934      821.       NA  
    ##  3 Afghanistan Asia       1962    32.0 10267083      853.       NA  
    ##  4 Afghanistan Asia       1967    34.0 11537966      836.       NA  
    ##  5 Afghanistan Asia       1972    36.1 13079460      740.        1.1
    ##  6 Afghanistan Asia       1977    38.4 14880372      786.        1.4
    ##  7 Afghanistan Asia       1982    39.9 12881816      978.        1.8
    ##  8 Afghanistan Asia       1987    40.8 13867957      852.        2.1
    ##  9 Afghanistan Asia       1992    41.7 16317921      649.        2.3
    ## 10 Afghanistan Asia       1997    41.8 22227415      635.        2.6
    ## # ... with 1,694 more rows

### anti\_join()

> anti\_join(x, y): Return all rows from x where there are not matching values in y, keeping just columns from x. This is a filtering join.

``` r
anti_join(gapminder, gapminder_tidyschool)
```

    ## # A tibble: 640 x 6
    ##    country     continent  year lifeExp      pop gdpPercap
    ##    <fct>       <fct>     <int>   <dbl>    <int>     <dbl>
    ##  1 Afghanistan Asia       1952    28.8  8425333      779.
    ##  2 Afghanistan Asia       1957    30.3  9240934      821.
    ##  3 Afghanistan Asia       1962    32.0 10267083      853.
    ##  4 Afghanistan Asia       1967    34.0 11537966      836.
    ##  5 Albania     Europe     1952    55.2  1282697     1601.
    ##  6 Albania     Europe     1957    59.3  1476505     1942.
    ##  7 Albania     Europe     1962    64.8  1728137     2313.
    ##  8 Albania     Europe     1967    66.2  1984060     2760.
    ##  9 Algeria     Africa     1952    43.1  9279525     2449.
    ## 10 Algeria     Africa     1957    45.7 10270856     3014.
    ## # ... with 630 more rows

### right\_join()

> right\_join(x, y): Return all rows from y, and all columns from x and y. If there are multiple matches between x and y, all combination of the matches are returned. This is a mutating join.

``` r
right_join(gapminder, gapminder_tidyschool)
```

    ## # A tibble: 1,064 x 7
    ##    country     continent  year lifeExp      pop gdpPercap meanSchool
    ##    <chr>       <fct>     <int>   <dbl>    <int>     <dbl>      <dbl>
    ##  1 Afghanistan Asia       1972    36.1 13079460      740.        1.1
    ##  2 Albania     Europe     1972    67.7  2263554     3313.        6.9
    ##  3 Algeria     Africa     1972    54.5 14760787     4183.        2.1
    ##  4 Angola      Africa     1972    37.9  5894858     5473.        2.5
    ##  5 Argentina   Americas   1972    67.1 24779799     9443.        7.3
    ##  6 Australia   Oceania    1972    71.9 13177000    16789.       10.2
    ##  7 Austria     Europe     1972    70.6  7544201    16662.        9.5
    ##  8 Bahrain     Asia       1972    63.3   230800    18269.        4.5
    ##  9 Bangladesh  Asia       1972    45.3 70759295      630.        2.6
    ## 10 Belgium     Europe     1972    71.4  9709100    16672.        8.9
    ## # ... with 1,054 more rows

### full\_join()

> full\_join(x, y): Return all rows from x and y, and all columns from x and y.

``` r
full_join(gapminder, gapminder_tidyschool)
```

    ## # A tibble: 1,704 x 7
    ##    country     continent  year lifeExp      pop gdpPercap meanSchool
    ##    <chr>       <fct>     <int>   <dbl>    <int>     <dbl>      <dbl>
    ##  1 Afghanistan Asia       1952    28.8  8425333      779.       NA  
    ##  2 Afghanistan Asia       1957    30.3  9240934      821.       NA  
    ##  3 Afghanistan Asia       1962    32.0 10267083      853.       NA  
    ##  4 Afghanistan Asia       1967    34.0 11537966      836.       NA  
    ##  5 Afghanistan Asia       1972    36.1 13079460      740.        1.1
    ##  6 Afghanistan Asia       1977    38.4 14880372      786.        1.4
    ##  7 Afghanistan Asia       1982    39.9 12881816      978.        1.8
    ##  8 Afghanistan Asia       1987    40.8 13867957      852.        2.1
    ##  9 Afghanistan Asia       1992    41.7 16317921      649.        2.3
    ## 10 Afghanistan Asia       1997    41.8 22227415      635.        2.6
    ## # ... with 1,694 more rows
…
[<img align ="center" src="https://github.com/STAT545-UBC-students/hw04-zeeva85/blob/master/figs/binds.png" width="600" height="300"/>](https://github.com/STAT545-UBC-students/hw04-zeeva85/blob/master/figs/binds.png)

### union()

> rows that appear in both `x` and `y`

``` r
#  print all rows gapminder$country vs gapminder_school$country
union(gapminder$country, gapminder_school$country) %>% 
  tbl_df() # not required, when used, prints nice
```

    ## # A tibble: 184 x 1
    ##    value      
    ##    <chr>      
    ##  1 Afghanistan
    ##  2 Albania    
    ##  3 Algeria    
    ##  4 Angola     
    ##  5 Argentina  
    ##  6 Australia  
    ##  7 Austria    
    ##  8 Bahrain    
    ##  9 Bangladesh 
    ## 10 Belgium    
    ## # ... with 174 more rows

### intersect()

> rows that appear in both `x` and `y`

``` r
#  rows gapminder$country vs gapminder_school$country, prints difference
intersect(gapminder$country, gapminder_school$country) %>% 
  tbl_df() # not required, when used, prints nice
```

    ## # A tibble: 133 x 1
    ##    value      
    ##    <chr>      
    ##  1 Afghanistan
    ##  2 Albania    
    ##  3 Algeria    
    ##  4 Angola     
    ##  5 Argentina  
    ##  6 Australia  
    ##  7 Austria    
    ##  8 Bahrain    
    ##  9 Bangladesh 
    ## 10 Belgium    
    ## # ... with 123 more rows

``` r
intersect(gapminder$country, gapminder_school$country) %>% 
  tbl_df() # not required, when used, prints nice
```

    ## # A tibble: 133 x 1
    ##    value      
    ##    <chr>      
    ##  1 Afghanistan
    ##  2 Albania    
    ##  3 Algeria    
    ##  4 Angola     
    ##  5 Argentina  
    ##  6 Australia  
    ##  7 Austria    
    ##  8 Bahrain    
    ##  9 Bangladesh 
    ## 10 Belgium    
    ## # ... with 123 more rows
…
``` r
# gapminder_school$country vs gapminder$country diffences 
setdiff(gapminder_school$country, gapminder$country) %>% 
  tbl_df()
```

    ## # A tibble: 42 x 1
    ##    value               
    ##    <chr>               
    ##  1 Antigua and Barbuda 
    ##  2 Armenia             
    ##  3 Azerbaijan          
    ##  4 Bahamas             
    ##  5 Belarus             
    ##  6 Belize              
    ##  7 Cape Verde          
    ##  8 Central African Rep.
    ##  9 Cyprus              
    ## 10 Czech Rep.          
    ## # ... with 32 more rows
…
    ## [1] country    continent  year       meanSchool
    ## <0 rows> (or 0-length row.names)

No rows indicate all of the rows in`gapminder_tidyschool` matches all the rows in the gapminder dataset.

Ending credits: gapminder2
==========================

``` r
gapminder %>% tbl_df()
```

    ## # A tibble: 1,704 x 6
    ##    country     continent  year lifeExp      pop gdpPercap
    ##    <fct>       <fct>     <int>   <dbl>    <int>     <dbl>
    ##  1 Afghanistan Asia       1952    28.8  8425333      779.
    ##  2 Afghanistan Asia       1957    30.3  9240934      821.
    ##  3 Afghanistan Asia       1962    32.0 10267083      853.
    ##  4 Afghanistan Asia       1967    34.0 11537966      836.
    ##  5 Afghanistan Asia       1972    36.1 13079460      740.
    ##  6 Afghanistan Asia       1977    38.4 14880372      786.
    ##  7 Afghanistan Asia       1982    39.9 12881816      978.
    ##  8 Afghanistan Asia       1987    40.8 13867957      852.
    ##  9 Afghanistan Asia       1992    41.7 16317921      649.
    ## 10 Afghanistan Asia       1997    41.8 22227415      635.
    ## # ... with 1,694 more rows

``` r
gapminder_school %>%  tbl_df()
```

    ## # A tibble: 175 x 41
    ##    country `1970` `1971` `1972` `1973` `1974` `1975` `1976` `1977` `1978`
    ##    <fct>    <dbl>  <dbl>  <dbl>  <dbl>  <dbl>  <dbl>  <dbl>  <dbl>  <dbl>
    ##  1 Afghan…    1      1.1    1.1    1.2    1.3    1.3    1.4    1.4    1.5
    ##  2 Albania    6.5    6.7    6.9    7      7.2    7.3    7.5    7.7    7.8
    ##  3 Algeria    1.9    2      2.1    2.2    2.3    2.4    2.5    2.7    2.8
    ##  4 Angola     2.3    2.4    2.5    2.7    2.8    2.9    3      3.1    3.2
    ##  5 Antigu…    8      8.2    8.4    8.6    8.7    8.9    9.1    9.3    9.5
    ##  6 Argent…    7      7.1    7.3    7.4    7.6    7.7    7.8    8      8.1
    ##  7 Armenia    7.8    7.9    8.1    8.2    8.4    8.5    8.7    8.8    9  
    ##  8 Austra…    9.9   10     10.2   10.3   10.4   10.5   10.6   10.7   10.8
    ##  9 Austria    9.3    9.4    9.5    9.6    9.8    9.9   10     10.1   10.2
    ## 10 Azerba…    7.6    7.8    8      8.2    8.4    8.6    8.8    8.9    9.1
    ## # ... with 165 more rows, and 31 more variables: `1979` <dbl>,
    ## #   `1980` <dbl>, `1981` <dbl>, `1982` <dbl>, `1983` <dbl>, `1984` <dbl>,
    ## #   `1985` <dbl>, `1986` <dbl>, `1987` <dbl>, `1988` <dbl>, `1989` <dbl>,
    ## #   `1990` <dbl>, `1991` <dbl>, `1992` <dbl>, `1993` <dbl>, `1994` <dbl>,
    ## #   `1995` <dbl>, `1996` <dbl>, `1997` <dbl>, `1998` <dbl>, `1999` <dbl>,
    ## #   `2000` <dbl>, `2001` <dbl>, `2002` <dbl>, `2003` <dbl>, `2004` <dbl>,
    ## #   `2005` <dbl>, `2006` <dbl>, `2007` <dbl>, `2008` <dbl>, `2009` <dbl>

``` r
gapminder2 %>% tbl_df() 
```

    ## # A tibble: 1,064 x 7
    ##    country     continent  year lifeExp      pop gdpPercap meanSchool
    ##    <chr>       <fct>     <int>   <dbl>    <int>     <dbl>      <dbl>
    ##  1 Afghanistan Asia       1972    36.1 13079460      740.        1.1
    ##  2 Afghanistan Asia       1977    38.4 14880372      786.        1.4
    ##  3 Afghanistan Asia       1982    39.9 12881816      978.        1.8
    ##  4 Afghanistan Asia       1987    40.8 13867957      852.        2.1
    ##  5 Afghanistan Asia       1992    41.7 16317921      649.        2.3
    ##  6 Afghanistan Asia       1997    41.8 22227415      635.        2.6
    ##  7 Afghanistan Asia       2002    42.1 25268405      727.        2.9
    ##  8 Afghanistan Asia       2007    43.8 31889923      975.        3.2
    ##  9 Albania     Europe     1972    67.7  2263554     3313.        6.9
    ## 10 Albania     Europe     1977    68.9  2509048     3533.        7.7
    ## # ... with 1,054 more rows
